group04_lab6_part3/group04_lab6_part3/cpu_wavedata.vcd
$date
	Wed Dec  2 10:35:35 2020
$end
$version
	Icarus Verilog
$end
$timescale
	100ps
$end
$scope module cpu_tb $end
$var wire 32 ! mem_writedata [31:0] $end
$var wire 1 " mem_write $end
$var wire 32 # mem_readdata [31:0] $end
$var wire 1 $ mem_read $end
$var wire 128 % mem_instruction [127:0] $end
$var wire 1 & mem_busywait $end
$var wire 6 ' mem_address [5:0] $end
$var wire 1 ( insbusywait $end
$var wire 1 ) imem_read $end
$var wire 1 * imem_busywait $end
$var wire 6 + imem_address [5:0] $end
$var wire 1 , busywait $end
$var wire 32 - PC [31:0] $end
$var wire 32 . INSTRUCTION [31:0] $end
$var wire 8 / C_WRITEDATA [7:0] $end
$var wire 1 0 C_WRITE $end
$var wire 8 1 C_READDATA [7:0] $end
$var wire 1 2 C_READ $end
$var wire 8 3 C_Address [7:0] $end
$var reg 1 4 CLK $end
$var reg 1 5 RESET $end
$var integer 32 6 i [31:0] $end
$scope module my_data_memory $end
$var wire 1 4 clock $end
$var wire 1 5 reset $end
$var wire 32 7 writedata [31:0] $end
$var wire 1 " write $end
$var wire 1 $ read $end
$var wire 6 8 address [5:0] $end
$var reg 1 & busywait $end
$var reg 1 9 readaccess $end
$var reg 32 : readdata [31:0] $end
$var reg 1 ; writeaccess $end
$var integer 32 < i [31:0] $end
$upscope $end
$scope module my_dcache $end
$var wire 1 4 clock $end
$var wire 1 & mem_busywait $end
$var wire 32 = mem_readdata [31:0] $end
$var wire 1 5 reset $end
$var wire 8 > C_WRITEDATA [7:0] $end
$var wire 1 0 C_WRITE $end
$var wire 1 2 C_READ $end
$var wire 8 ? C_Address [7:0] $end
$var reg 32 @ BLOCK [31:0] $end
$var reg 8 A C_READDATA [7:0] $end
$var reg 1 , busywait $end
$var reg 1 B dirtybit $end
$var reg 1 C hit $end
$var reg 3 D index [2:0] $end
$var reg 6 E mem_address [5:0] $end
$var reg 1 $ mem_read $end
$var reg 1 " mem_write $end
$var reg 32 F mem_writedata [31:0] $end
$var reg 3 G next_state [2:0] $end
$var reg 2 H offset [1:0] $end
$var reg 1 I readaccess $end
$var reg 3 J state [2:0] $end
$var reg 3 K tag [2:0] $end
$var reg 1 L validbit $end
$var reg 1 M writeaccess $end
$var integer 32 N j [31:0] $end
$upscope $end
$scope module mycpu $end
$var wire 8 O ADDRESS [7:0] $end
$var wire 1 , BUSYWAIT $end
$var wire 1 4 CLK $end
$var wire 8 P READDATA [7:0] $end
$var wire 1 5 RESET $end
$var wire 1 Q and_output $end
$var wire 1 R select5 $end
$var wire 32 S target [31:0] $end
$var wire 8 T out2 [7:0] $end
$var wire 8 U out1 [7:0] $end
$var wire 8 V complement [7:0] $end
$var wire 8 W aluresult [7:0] $end
$var wire 1 X ZERO $end
$var wire 32 Y INSTRUCTION [31:0] $end
$var wire 1 ( INSBUSYWAIT $end
$var reg 3 Z ALUOP [2:0] $end
$var reg 1 [ DatamemSelect $end
$var reg 8 \ INDATA [7:0] $end
$var reg 32 ] PC [31:0] $end
$var reg 1 2 READ $end
$var reg 1 0 WRITE $end
$var reg 8 ^ WRITEDATA [7:0] $end
$var reg 1 _ WRITEENABLE $end
$var reg 32 ` extended [31:0] $end
$var reg 10 a leftshift [9:0] $end
$var reg 8 b outmux1 [7:0] $end
$var reg 8 c outmux2 [7:0] $end
$var reg 32 d pc [31:0] $end
$var reg 1 e select1 $end
$var reg 1 f select2 $end
$var reg 1 g select3 $end
$var reg 1 h select4 $end
$scope module myalu $end
$var wire 8 i DATA2 [7:0] $end
$var wire 3 j SELECT [2:0] $end
$var wire 8 k WOR [7:0] $end
$var wire 8 l WFORWARD [7:0] $end
$var wire 8 m WAND [7:0] $end
$var wire 8 n WADD [7:0] $end
$var wire 8 o DATA1 [7:0] $end
$var reg 8 p RESULT [7:0] $end
$var reg 1 X ZERO $end
$scope module F1 $end
$var wire 8 q DATA2 [7:0] $end
$var wire 8 r Result [7:0] $end
$upscope $end
$scope module F2 $end
$var wire 8 s DATA2 [7:0] $end
$var wire 8 t Result [7:0] $end
$var wire 8 u DATA1 [7:0] $end
$upscope $end
$scope module F3 $end
$var wire 8 v DATA2 [7:0] $end
$var wire 8 w Result [7:0] $end
$var wire 8 x DATA1 [7:0] $end
$upscope $end
$scope module F4 $end
$var wire 8 y DATA2 [7:0] $end
$var wire 8 z Result [7:0] $end
$var wire 8 { DATA1 [7:0] $end
$upscope $end
$upscope $end
$scope module myreg $end
$var wire 1 , BUSYWAIT $end
$var wire 1 4 CLK $end
$var wire 8 | IN [7:0] $end
$var wire 3 } INADDRESS [2:0] $end
$var wire 8 ~ OUT1 [7:0] $end
$var wire 3 !" OUT1ADDRESS [2:0] $end
$var wire 8 "" OUT2 [7:0] $end
$var wire 3 #" OUT2ADDRESS [2:0] $end
$var wire 1 5 RESET $end
$var wire 1 _ WRITE $end
$var wire 1 ( INSBUSYWAIT $end
$upscope $end
$upscope $end
$scope module myicache $end
$var wire 32 $" PC [31:0] $end
$var wire 1 4 clock $end
$var wire 1 5 reset $end
$var wire 1 %" validbit $end
$var wire 3 &" tag [2:0] $end
$var wire 2 '" offset [1:0] $end
$var wire 128 (" mem_instruction [127:0] $end
$var wire 3 )" index [2:0] $end
$var wire 1 * imem_busywait $end
$var wire 1 *" hit $end
$var wire 128 +" BLOCK [127:0] $end
$var reg 1 ( c_busywait $end
$var reg 32 ," c_instruction [31:0] $end
$var reg 6 -" imem_address [5:0] $end
$var reg 1 ) imem_read $end
$var reg 32 ." instruction [31:0] $end
$var reg 2 /" nextstate [1:0] $end
$var reg 2 0" state [1:0] $end
$var integer 32 1" j [31:0] $end
$upscope $end
$scope module myinsmem $end
$var wire 6 2" address [5:0] $end
$var wire 1 4 clock $end
$var wire 1 ) read $end
$var reg 1 * busywait $end
$var reg 1 3" readaccess $end
$var reg 128 4" readinst [127:0] $end
$upscope $end
$upscope $end
$scope module cpu_tb $end
$scope module mycpu $end
$scope module myreg $end
$var reg 8 5" \store[0] [7:0] $end
$upscope $end
$upscope $end
$upscope $end
$scope module cpu_tb $end
$scope module mycpu $end
$scope module myreg $end
$var reg 8 6" \store[1] [7:0] $end
$upscope $end
$upscope $end
$upscope $end
$scope module cpu_tb $end
$scope module mycpu $end
$scope module myreg $end
$var reg 8 7" \store[2] [7:0] $end
$upscope $end
$upscope $end
$upscope $end
$scope module cpu_tb $end
$scope module mycpu $end
$scope module myreg $end
$var reg 8 8" \store[3] [7:0] $end
$upscope $end
$upscope $end
$upscope $end
$scope module cpu_tb $end
$scope module mycpu $end
$scope module myreg $end
$var reg 8 9" \store[4] [7:0] $end
$upscope $end
$upscope $end
$upscope $end
$scope module cpu_tb $end
$scope module mycpu $end
$scope module myreg $end
$var reg 8 :" \store[5] [7:0] $end
$upscope $end
$upscope $end
$upscope $end
$scope module cpu_tb $end
$scope module mycpu $end
$scope module myreg $end
$var reg 8 ;" \store[6] [7:0] $end
$upscope $end
$upscope $end
$upscope $end
$scope module cpu_tb $end
$scope module mycpu $end
$scope module myreg $end
$var reg 8 <" \store[7] [7:0] $end
$upscope $end
$upscope $end
$upscope $end
$scope module cpu_tb $end
$scope module my_dcache $end
$var reg 37 =" \Cache_MEM[0] [36:0] $end
$upscope $end
$upscope $end
$scope module cpu_tb $end
$scope module my_dcache $end
$var reg 37 >" \Cache_MEM[1] [36:0] $end
$upscope $end
$upscope $end
$scope module cpu_tb $end
$scope module my_dcache $end
$var reg 37 ?" \Cache_MEM[2] [36:0] $end
$upscope $end
$upscope $end
$scope module cpu_tb $end
$scope module my_dcache $end
$var reg 37 @" \Cache_MEM[3] [36:0] $end
$upscope $end
$upscope $end
$scope module cpu_tb $end
$scope module my_dcache $end
$var reg 37 A" \Cache_MEM[4] [36:0] $end
$upscope $end
$upscope $end
$scope module cpu_tb $end
$scope module my_dcache $end
$var reg 37 B" \Cache_MEM[5] [36:0] $end
$upscope $end
$upscope $end
$scope module cpu_tb $end
$scope module my_dcache $end
$var reg 37 C" \Cache_MEM[6] [36:0] $end
$upscope $end
$upscope $end
$scope module cpu_tb $end
$scope module my_dcache $end
$var reg 37 D" \Cache_MEM[7] [36:0] $end
$upscope $end
$upscope $end
$scope module cpu_tb $end
$scope module myicache $end
$var reg 132 E" \iCache[0] [131:0] $end
$upscope $end
$upscope $end
$scope module cpu_tb $end
$scope module myicache $end
$var reg 132 F" \iCache[1] [131:0] $end
$upscope $end
$upscope $end
$scope module cpu_tb $end
$scope module myicache $end
$var reg 132 G" \iCache[2] [131:0] $end
$upscope $end
$upscope $end
$scope module cpu_tb $end
$scope module myicache $end
$var reg 132 H" \iCache[3] [131:0] $end
$upscope $end
$upscope $end
$scope module cpu_tb $end
$scope module myicache $end
$var reg 132 I" \iCache[4] [131:0] $end
$upscope $end
$upscope $end
$scope module cpu_tb $end
$scope module myicache $end
$var reg 132 J" \iCache[5] [131:0] $end
$upscope $end
$upscope $end
$scope module cpu_tb $end
$scope module myicache $end
$var reg 132 K" \iCache[6] [131:0] $end
$upscope $end
$upscope $end
$scope module cpu_tb $end
$scope module myicache $end
$var reg 132 L" \iCache[7] [131:0] $end
$upscope $end
$upscope $end
$enddefinitions $end
#0
$dumpvars
bx L"
bx K"
bx J"
bx I"
bx H"
bx G"
bx F"
bx E"
bx D"
bx C"
bx B"
bx A"
bx @"
bx ?"
bx >"
bx ="
bx <"
bx ;"
bx :"
bx 9"
bx 8"
bx 7"
bx 6"
bx 5"
bx 4"
03"
bx 2"
bx 1"
b0 0"
b0 /"
bx ."
bx -"
bx ,"
bx +"
x*"
bx )"
bx ("
bx '"
bx &"
x%"
bx $"
bx #"
bx ""
bx !"
bx ~
bx }
bx |
bx {
bx z
bx y
bx x
bx w
bx v
bx u
bx t
bx s
bx r
bx q
bx p
bx o
bx n
bx m
bx l
bx k
bx j
bx i
xh
xg
xf
xe
bx d
bx c
bx b
bx a
bx `
x_
bx ^
bx ]
bx \
x[
bx Z
bx Y
xX
bx W
bx V
bx U
bx T
bx S
xR
xQ
bx P
bx O
bx N
0M
xL
bx K
b0 J
0I
bx H
b0 G
bx F
bx E
bx D
xC
xB
bx A
bx @
bx ?
bx >
bx =
b100000000 <
0;
bx :
09
bx 8
bx 7
b1000 6
15
04
bx 3
02
bx 1
00
bx /
bx .
bx -
0,
bx +
0*
0)
0(
bx '
0&
bx %
0$
bx #
0"
bx !
$end
#10
b0 D"
b0 C"
b0 B"
b0 A"
b0 @"
b0 ?"
b0 >"
b0 ="
b1000 N
b0 L"
b0 K"
b0 J"
b0 I"
b0 H"
b0 G"
b0 F"
b0 E"
b1000 1"
#40
14
#41
b0 d
#50
b0 -
b0 ]
b0 $"
b0 <"
b0 ;"
b0 :"
b0 9"
b0 8"
b0 7"
b0 6"
b0 5"
b0 L"
b0 K"
b0 J"
b0 I"
b0 H"
b0 G"
b0 F"
b0 E"
b1000 1"
b0 D"
b0 C"
b0 B"
b0 A"
b0 @"
b0 ?"
b0 >"
b0 ="
b1000 N
05
#60
b0 +"
b0 &"
0%"
b100 d
b0 )"
b0 '"
#69
b1 /"
0*"
#70
b0 ."
#80
04
#120
13"
1*
b0 +
b0 -"
b0 2"
1)
b1 /"
1(
b1 0"
14
#160
04
#200
14
#240
04
#280
14
#320
04
#360
14
#400
04
#440
14
#480
04
#520
14
#560
04
#600
14
bx00001001 %
bx00001001 ("
bx00001001 4"
#640
04
#680
14
#720
04
#760
14
#800
04
#840
14
#880
04
#920
14
#960
04
#1000
14
bx0000000000001001 %
bx0000000000001001 ("
bx0000000000001001 4"
#1040
04
#1080
14
#1120
04
#1160
14
#1200
04
#1240
14
#1280
04
#1320
14
#1360
04
#1400
14
bx000000000000000000001001 %
bx000000000000000000001001 ("
bx000000000000000000001001 4"
#1440
04
#1480
14
#1520
04
#1560
14
#1600
04
#1640
14
#1680
04
#1720
14
#1760
04
#1800
14
bx00000000000000000000000000001001 %
bx00000000000000000000000000001001 ("
bx00000000000000000000000000001001 4"
#1840
04
#1880
14
#1920
04
#1960
14
#2000
04
#2040
14
#2080
04
#2120
14
#2160
04
#2200
14
bx0000000100000000000000000000000000001001 %
bx0000000100000000000000000000000000001001 ("
bx0000000100000000000000000000000000001001 4"
#2240
04
#2280
14
#2320
04
#2360
14
#2400
04
#2440
14
#2480
04
#2520
14
#2560
04
#2600
14
bx000000000000000100000000000000000000000000001001 %
bx000000000000000100000000000000000000000000001001 ("
bx000000000000000100000000000000000000000000001001 4"
#2640
04
#2680
14
#2720
04
#2760
14
#2800
04
#2840
14
#2880
04
#2920
14
#2960
04
#3000
14
bx00000001000000000000000100000000000000000000000000001001 %
bx00000001000000000000000100000000000000000000000000001001 ("
bx00000001000000000000000100000000000000000000000000001001 4"
#3040
04
#3080
14
#3120
04
#3160
14
#3200
04
#3240
14
#3280
04
#3320
14
#3360
04
#3400
14
bx0000000000000001000000000000000100000000000000000000000000001001 %
bx0000000000000001000000000000000100000000000000000000000000001001 ("
bx0000000000000001000000000000000100000000000000000000000000001001 4"
#3440
04
#3480
14
#3520
04
#3560
14
#3600
04
#3640
14
#3680
04
#3720
14
#3760
04
#3800
14
bx000000010000000000000001000000000000000100000000000000000000000000001001 %
bx000000010000000000000001000000000000000100000000000000000000000000001001 ("
bx000000010000000000000001000000000000000100000000000000000000000000001001 4"
#3840
04
#3880
14
#3920
04
#3960
14
#4000
04
#4040
14
#4080
04
#4120
14
#4160
04
#4200
14
bx00000000000000010000000000000001000000000000000100000000000000000000000000001001 %
bx00000000000000010000000000000001000000000000000100000000000000000000000000001001 ("
bx00000000000000010000000000000001000000000000000100000000000000000000000000001001 4"
#4240
04
#4280
14
#4320
04
#4360
14
#4400
04
#4440
14
#4480
04
#4520
14
#4560
04
#4600
14
bx0000000000000000000000010000000000000001000000000000000100000000000000000000000000001001 %
bx0000000000000000000000010000000000000001000000000000000100000000000000000000000000001001 ("
bx0000000000000000000000010000000000000001000000000000000100000000000000000000000000001001 4"
#4640
04
#4680
14
#4720
04
#4760
14
#4800
04
#4840
14
#4880
04
#4920
14
#4960
04
#5000
14
bx000010100000000000000000000000010000000000000001000000000000000100000000000000000000000000001001 %
bx000010100000000000000000000000010000000000000001000000000000000100000000000000000000000000001001 ("
bx000010100000000000000000000000010000000000000001000000000000000100000000000000000000000000001001 4"
#5040
04
#5080
14
#5120
04
#5160
14
#5200
04
#5240
14
#5280
04
#5320
14
#5360
04
#5400
14
bx00000000000010100000000000000000000000010000000000000001000000000000000100000000000000000000000000001001 %
bx00000000000010100000000000000000000000010000000000000001000000000000000100000000000000000000000000001001 ("
bx00000000000010100000000000000000000000010000000000000001000000000000000100000000000000000000000000001001 4"
#5440
04
#5480
14
#5520
04
#5560
14
#5600
04
#5640
14
#5680
04
#5720
14
#5760
04
#5800
14
bx0000000100000000000010100000000000000000000000010000000000000001000000000000000100000000000000000000000000001001 %
bx0000000100000000000010100000000000000000000000010000000000000001000000000000000100000000000000000000000000001001 ("
bx0000000100000000000010100000000000000000000000010000000000000001000000000000000100000000000000000000000000001001 4"
#5840
04
#5880
14
#5920
04
#5960
14
#6000
04
#6040
14
#6080
04
#6120
14
#6160
04
#6200
14
bx000000000000000100000000000010100000000000000000000000010000000000000001000000000000000100000000000000000000000000001001 %
bx000000000000000100000000000010100000000000000000000000010000000000000001000000000000000100000000000000000000000000001001 ("
bx000000000000000100000000000010100000000000000000000000010000000000000001000000000000000100000000000000000000000000001001 4"
#6240
04
#6280
14
#6320
04
#6360
14
#6400
04
#6440
14
#6480
04
#6520
14
#6560
04
#6600
bx +
bx -"
bx 2"
0)
b10 0"
b0 /"
14
03"
0*
b1011000000000000000100000000000010100000000000000000000000010000000000000001000000000000000100000000000000000000000000001001 %
b1011000000000000000100000000000010100000000000000000000000010000000000000001000000000000000100000000000000000000000000001001 ("
b1011000000000000000100000000000010100000000000000000000000010000000000000001000000000000000100000000000000000000000000001001 4"
#6610
b100000001011000000000000000100000000000010100000000000000000000000010000000000000001000000000000000100000000000000000000000000001001 E"
#6620
1%"
b1011000000000000000100000000000010100000000000000000000000010000000000000001000000000000000100000000000000000000000000001001 +"
#6629
1*"
#6630
b1 #"
b0 !"
b0 }
b0 `
b0 a
b1001 .
b1001 Y
b1001 ,"
b1001 ."
#6640
0R
0Q
b1001 c
b1001 i
b1001 q
b1001 s
b1001 v
b1001 y
0X
0[
1_
0h
0g
1f
0e
b0 Z
b0 j
04
#6650
b1001 \
b1001 |
b1001 3
b1001 ?
b1001 O
b1001 W
b1001 p
b0 b
b0 /
b0 >
b0 ^
b0x00x m
b0x00x w
bx1xx1 k
bx1xx1 z
b1001 l
b1001 r
b0 T
b0 ""
b0 U
b0 o
b0 u
b0 x
b0 {
b0 ~
b100 S
#6659
0C
#6660
b0 V
b1001 k
b1001 z
b0 m
b0 w
#6670
b1001 n
b1001 t
#6680
0(
b0 0"
14
#6690
b1001 5"
b100 -
b100 ]
b100 $"
#6700
b1000 d
b1 '"
#6710
b1 }
b100 `
b100 a
b1 c
b1 i
b1 q
b1 s
b1 v
b1 y
b10000000000000001 .
b10000000000000001 Y
b10000000000000001 ,"
b1001 /
b1001 >
b1001 ^
b10000000000000001 ."
b1001 U
b1001 o
b1001 u
b1001 x
b1001 {
b1001 ~
b1000 S
#6720
b1 \
b1 |
b1 3
b1 ?
b1 O
b1 W
b1 p
b1 l
b1 r
b1 m
b1 w
04
#6730
b1100 S
b1010 n
b1010 t
#6760
14
#6770
b1000 -
b1000 ]
b1000 $"
b1 6"
#6780
b1100 d
b10 '"
#6790
b0 }
b0 `
b0 a
b1010000000000000000000000001 .
b1010000000000000000000000001 Y
b1010000000000000000000000001 ,"
b1 b
b1010000000000000000000000001 ."
b10000 S
b1 T
b1 ""
#6800
1M
1,
10
0_
0f
b11111111 V
04
#6810
b1 G
b0 D
b1 H
0L
0B
b0 K
b0 @
b1100 S
#6820
b0 1
b0 A
b0 P
#6840
19
1&
b0 '
b0 8
b0 E
1$
b1 G
b1 J
14
#6880
04
#6920
14
#6960
04
#7000
14
#7040
04
#7080
14
#7120
04
#7160
14
#7200
04
#7240
14
#7280
04
#7320
14
bx00000000 #
bx00000000 :
bx00000000 =
#7360
04
#7400
14
#7440
04
#7480
14
#7520
04
#7560
14
#7600
04
#7640
14
#7680
04
#7720
14
bx0000000000000000 #
bx0000000000000000 :
bx0000000000000000 =
#7760
04
#7800
14
#7840
04
#7880
14
#7920
04
#7960
14
#8000
04
#8040
14
#8080
04
#8120
14
bx000000000000000000000000 #
bx000000000000000000000000 :
bx000000000000000000000000 =
#8160
04
#8200
14
#8240
04
#8280
14
#8320
04
#8360
14
#8400
04
#8440
14
#8480
04
#8520
bx '
bx 8
bx E
0$
b11 J
b0 G
14
09
0&
b0 #
b0 :
b0 =
#8530
b1000000000000000000000000000000000000 ="
#8540
1L
#8549
1C
#8560
04
#8600
0M
00
0,
b0 J
14
#8610
b1100 -
b1100 ]
b1100 $"
b1100000000000000000000000100100000000 ="
#8620
b10000 d
b11 '"
#8630
b0 #"
b1 !"
b1011000000000000000100000000 .
b1011000000000000000100000000 Y
b1011000000000000000100000000 ,"
b1011000000000000000100000000 ."
b10000 S
#8640
1M
1,
b0 c
b0 i
b0 q
b0 s
b0 v
b0 y
10
1f
04
#8650
b0 \
b0 |
1X
b0 3
b0 ?
b0 O
b0 W
b0 p
b1001 b
b1 /
b1 >
b1 ^
1B
b100100000000 @
b0 m
b0 w
b0 l
b0 r
b1001 T
b1001 ""
b1 U
b1 o
b1 u
b1 x
b1 {
b1 ~
#8660
b0 H
b11110111 V
b1 k
b1 z
#8670
b1 n
b1 t
#8680
0M
00
0,
14
#8690
b10000 -
b10000 ]
b10000 $"
b1100000000000000000000000100100000001 ="
#8700
b0 +"
0%"
b10100 d
b1 )"
b0 '"
#8709
b1 /"
0*"
#8710
b0 ."
b10100 S
#8720
04
#8760
13"
1*
b1 +
b1 -"
b1 2"
1)
b1 /"
1(
b1 0"
14
#8800
04
#8840
14
#8880
04
#8920
14
#8960
04
#9000
14
#9040
04
#9080
14
#9120
04
#9160
14
#9200
04
#9240
14
b1011000000000000000100000000000010100000000000000000000000010000000000000001000000000000000100000000000000000000000000000001 %
b1011000000000000000100000000000010100000000000000000000000010000000000000001000000000000000100000000000000000000000000000001 ("
b1011000000000000000100000000000010100000000000000000000000010000000000000001000000000000000100000000000000000000000000000001 4"
#9280
04
#9320
14
#9360
04
#9400
14
#9440
04
#9480
14
#9520
04
#9560
14
#9600
04
#9640
14
#9680
04
#9720
14
#9760
04
#9800
14
#9840
04
#9880
14
#9920
04
#9960
14
#10000
04
#10040
14
b1011000000000000000100000000000010100000000000000000000000010000000000000001000000000000000100000000000000100000000000000001 %
b1011000000000000000100000000000010100000000000000000000000010000000000000001000000000000000100000000000000100000000000000001 ("
b1011000000000000000100000000000010100000000000000000000000010000000000000001000000000000000100000000000000100000000000000001 4"
#10080
04
#10120
14
#10160
04
#10200
14
#10240
04
#10280
14
#10320
04
#10360
14
#10400
04
#10440
14
b1011000000000000000100000000000010100000000000000000000000010000000000000001000000000000000100001000000000100000000000000001 %
b1011000000000000000100000000000010100000000000000000000000010000000000000001000000000000000100001000000000100000000000000001 ("
b1011000000000000000100000000000010100000000000000000000000010000000000000001000000000000000100001000000000100000000000000001 4"
#10480
04
#10520
14
#10560
04
#10600
14
#10640
04
#10680
14
#10720
04
#10760
14
#10800
04
#10840
14
#10880
04
#10920
14
#10960
04
#11000
14
#11040
04
#11080
14
#11120
04
#11160
14
#11200
04
#11240
14
#11280
04
#11320
14
#11360
04
#11400
14
#11440
04
#11480
14
#11520
04
#11560
14
#11600
04
#11640
14
b1011000000000000000100000000000010100000000000000000000000010000000000000011000000000000000100001000000000100000000000000001 %
b1011000000000000000100000000000010100000000000000000000000010000000000000011000000000000000100001000000000100000000000000001 ("
b1011000000000000000100000000000010100000000000000000000000010000000000000011000000000000000100001000000000100000000000000001 4"
#11680
04
#11720
14
#11760
04
#11800
14
#11840
04
#11880
14
#11920
04
#11960
14
#12000
04
#12040
14
b1011000000000000000100000000000010100000000000000000000000010000100000000011000000000000000100001000000000100000000000000001 %
b1011000000000000000100000000000010100000000000000000000000010000100000000011000000000000000100001000000000100000000000000001 ("
b1011000000000000000100000000000010100000000000000000000000010000100000000011000000000000000100001000000000100000000000000001 4"
#12080
04
#12120
14
#12160
04
#12200
14
#12240
04
#12280
14
#12320
04
#12360
14
#12400
04
#12440
14
#12480
04
#12520
14
#12560
04
#12600
14
#12640
04
#12680
14
#12720
04
#12760
14
#12800
04
#12840
14
#12880
04
#12920
14
#12960
04
#13000
14
#13040
04
#13080
14
#13120
04
#13160
14
#13200
04
#13240
14
b1011000000000000000100000000000010100000010000000000000000010000100000000011000000000000000100001000000000100000000000000001 %
b1011000000000000000100000000000010100000010000000000000000010000100000000011000000000000000100001000000000100000000000000001 ("
b1011000000000000000100000000000010100000010000000000000000010000100000000011000000000000000100001000000000100000000000000001 4"
#13280
04
#13320
14
#13360
04
#13400
14
#13440
04
#13480
14
#13520
04
#13560
14
#13600
04
#13640
14
b1011000000000000000100000000000000110000010000000000000000010000100000000011000000000000000100001000000000100000000000000001 %
b1011000000000000000100000000000000110000010000000000000000010000100000000011000000000000000100001000000000100000000000000001 ("
b1011000000000000000100000000000000110000010000000000000000010000100000000011000000000000000100001000000000100000000000000001 4"
#13680
04
#13720
14
#13760
04
#13800
14
#13840
04
#13880
14
#13920
04
#13960
14
#14000
04
#14040
14
b1011000000000000000100000010000000110000010000000000000000010000100000000011000000000000000100001000000000100000000000000001 %
b1011000000000000000100000010000000110000010000000000000000010000100000000011000000000000000100001000000000100000000000000001 ("
b1011000000000000000100000010000000110000010000000000000000010000100000000011000000000000000100001000000000100000000000000001 4"
#14080
04
#14120
14
#14160
04
#14200
14
#14240
04
#14280
14
#14320
04
#14360
14
#14400
04
#14440
14
b1011000000000000010000000010000000110000010000000000000000010000100000000011000000000000000100001000000000100000000000000001 %
b1011000000000000010000000010000000110000010000000000000000010000100000000011000000000000000100001000000000100000000000000001 ("
b1011000000000000010000000010000000110000010000000000000000010000100000000011000000000000000100001000000000100000000000000001 4"
#14480
04
#14520
14
#14560
04
#14600
14
#14640
04
#14680
14
#14720
04
#14760
14
#14800
04
#14840
14
#14880
04
#14920
14
#14960
04
#15000
14
#15040
04
#15080
14
#15120
04
#15160
14
#15200
04
#15240
bx +
bx -"
bx 2"
0)
b10 0"
b0 /"
14
03"
0*
#15250
b100000001011000000000000010000000010000000110000010000000000000000010000100000000011000000000000000100001000000000100000000000000001 F"
#15260
1%"
b1011000000000000010000000010000000110000010000000000000000010000100000000011000000000000000100001000000000100000000000000001 +"
#15269
1*"
#15270
b1 #"
b0 !"
b10 }
b1000 `
b1000 a
b1 c
b1 i
b1 q
b1 s
b1 v
b1 y
b1000000000100000000000000001 .
b1000000000100000000000000001 Y
b1000000000100000000000000001 ,"
b1000000000100000000000000001 ."
#15280
1I
1,
b1001 c
b1001 i
b1001 q
b1001 s
b1001 v
b1001 y
0X
b1 3
b1 ?
b1 O
b1 W
b1 p
b1 m
b1 w
12
1[
1_
0f
b1 l
b1 r
04
#15290
b1 c
b1 i
b1 q
b1 s
b1 v
b1 y
b1001 3
b1001 ?
b1001 O
b1001 W
b1001 p
b1 b
b1001 /
b1001 >
b1001 ^
b1001 k
b1001 z
b1 H
b100100000001 @
b1001 l
b1001 r
b1 T
b1 ""
b1001 U
b1001 o
b1001 u
b1001 x
b1001 {
b1001 ~
b11100 S
#15300
b1 3
b1 ?
b1 O
b1 W
b1 p
b1001 \
b1001 |
b10 D
0L
0B
b0 @
b1 l
b1 r
b1001 1
b1001 A
b1001 P
b11111111 V
#15309
b1 G
0C
#15310
b10 G
b0 D
1L
1B
b100100000001 @
b1010 n
b1010 t
#15319
b0 G
1C
#15320
02
0(
0,
0I
b0 0"
14
#15330
b1001 7"
b10100 -
b10100 ]
b10100 $"
#15340
b11000 d
b1 '"
#15350
b11 }
b1100 `
b1100 a
b1000000000110000000000000001 .
b1000000000110000000000000001 Y
b1000000000110000000000000001 ,"
b1000000000110000000000000001 ."
b100000 S
#15360
1I
1,
12
04
#15370
b100100 S
#15400
02
0,
0I
14
#15410
b11000 -
b11000 ]
b11000 $"
b1001 8"
#15420
b11100 d
b10 '"
#15430
b100 }
b10000 `
b10000 a
b11000001000000000000000001 .
b11000001000000000000000001 Y
b11000001000000000000000001 ,"
b11000001000000000000000001 ."
b101000 S
#15440
b11111111 c
b11111111 i
b11111111 q
b11111111 s
b11111111 v
b11111111 y
b1010 \
b1010 |
b11111111 b
b1010 3
b1010 ?
b1010 O
b1010 W
b1010 p
0[
1e
b1 Z
b1 j
04
#15450
b1001 m
b1001 w
b11111111 k
b11111111 z
b11111111 l
b11111111 r
b101100 S
#15460
b1000 \
b1000 |
b1000 3
b1000 ?
b1000 O
b1000 W
b1000 p
b1000 n
b1000 t
#15480
14
#15490
b1000 9"
b11100 -
b11100 ]
b11100 $"
#15500
b100000 d
b11 '"
#15510
b10 #"
b100 !"
b0 }
b0 `
b0 a
b1011000000000000010000000010 .
b1011000000000000010000000010 Y
b1011000000000000010000000010 ,"
b1011000000000000010000000010 ."
b110000 S
#15520
b11111111 \
b11111111 |
1M
1,
b10 c
b10 i
b10 q
b10 s
b10 v
b10 y
b1 b
b11111111 3
b11111111 ?
b11111111 O
b11111111 W
b11111111 p
10
0_
1f
0e
b0 Z
b0 j
04
#15529
b10 G
0C
#15530
b10 \
b10 |
b1 G
b10 3
b10 ?
b10 O
b10 W
b10 p
b1001 b
b1000 /
b1000 >
b1000 ^
b0 m
b0 w
b1011 k
b1011 z
b111 D
b11 H
0L
0B
b0 @
b10 l
b10 r
b1001 T
b1001 ""
b1000 U
b1000 o
b1000 u
b1000 x
b1000 {
b1000 ~
b100000 S
#15540
b10 G
b0 D
b10 H
1L
1B
b100100000001 @
b0 1
b0 A
b0 P
b11110111 V
b1010 k
b1010 z
#15549
b0 G
1C
#15550
b1010 n
b1010 t
#15560
0M
00
0,
14
#15570
b100000 -
b100000 ]
b100000 $"
b1100000000000000010000000100100000001 ="
#15580
b0 +"
0%"
b100100 d
b10 )"
b0 '"
#15589
b1 /"
0*"
#15590
b0 ."
b100100 S
#15600
04
#15640
13"
1*
b10 +
b10 -"
b10 2"
1)
b1 /"
1(
b1 0"
14
#15680
04
#15720
14
#15760
04
#15800
14
#15840
04
#15880
14
#15920
04
#15960
14
#16000
04
#16040
14
#16080
04
#16120
14
b1011000000000000010000000010000000110000010000000000000000010000100000000011000000000000000100001000000000100000000000000010 %
b1011000000000000010000000010000000110000010000000000000000010000100000000011000000000000000100001000000000100000000000000010 ("
b1011000000000000010000000010000000110000010000000000000000010000100000000011000000000000000100001000000000100000000000000010 4"
#16160
04
#16200
14
#16240
04
#16280
14
#16320
04
#16360
14
#16400
04
#16440
14
#16480
04
#16520
14
#16560
04
#16600
14
#16640
04
#16680
14
#16720
04
#16760
14
#16800
04
#16840
14
#16880
04
#16920
14
b1011000000000000010000000010000000110000010000000000000000010000100000000011000000000000000100001000000001010000000000000010 %
b1011000000000000010000000010000000110000010000000000000000010000100000000011000000000000000100001000000001010000000000000010 ("
b1011000000000000010000000010000000110000010000000000000000010000100000000011000000000000000100001000000001010000000000000010 4"
#16960
04
#17000
14
#17040
04
#17080
14
#17120
04
#17160
14
#17200
04
#17240
14
#17280
04
#17320
14
b1011000000000000010000000010000000110000010000000000000000010000100000000011000000000000000100001001000001010000000000000010 %
b1011000000000000010000000010000000110000010000000000000000010000100000000011000000000000000100001001000001010000000000000010 ("
b1011000000000000010000000010000000110000010000000000000000010000100000000011000000000000000100001001000001010000000000000010 4"
#17360
04
#17400
14
#17440
04
#17480
14
#17520
04
#17560
14
